<?xml version="1.0" encoding="utf-8"?>
<!-- Generator: Adobe Illustrator 22.1.0, SVG Export Plug-In . SVG Version: 6.00 Build 0)  -->
<svg version="1.1" id="Capa_1" xmlns="http://www.w3.org/2000/svg" xmlns:xlink="http://www.w3.org/1999/xlink" x="0px" y="0px"
	 viewBox="0 0 170 170" style="enable-background:new 0 0 170 170;" xml:space="preserve">
<style type="text/css">
	.st0{stroke:#000000;stroke-width:2.7973;stroke-miterlimit:10;}
</style>
<g>
	<path class="st0" d="M35.1,27.3c-6.7,0-13,0-19.4,0c0-2.1,0-4.2,0-6.3c10.5,0,21.1,0,31.8,0c0,10.6,0,21.2,0,31.9c-2,0-4,0-6.2,0
		c0-7.3,0-14.5,0-22.2c-7.6,6.3-13.5,13.5-17.8,21.9c-8.7,17-10.4,34.8-4.8,53.1c10.9,36.1,48.9,57.2,85.3,47.6
		c36-9.6,58.9-45.4,51.1-82.6c-4.4-21-16.2-36.9-34.9-47.3c-18.7-10.4-38.3-11.4-58.6-4.6c-0.7-1.9-1.4-3.8-2.1-5.7
		c23.1-9.8,62.7-7.2,87.9,25.4c24.1,31.2,19.9,77.1-9.6,103.5c-30.7,27.5-76.2,26.6-105.6-2.3C16.4,124.2,8.7,105.2,9.2,83.1
		C9.8,61,18.7,42.6,35.1,27.3z"/>
	<path class="st0" d="M111.7,53.1c0,2.1,0,4.1,0,6.2c-2.1,0-4.1,0-6.4,0c0,1.5,0,2.8,0,4.1c0,2.3,0.6,4.8-0.3,6.8
		c-0.8,2-3,3.4-4.6,5c-3.2,3.2-6.3,6.4-9.5,9.5c-0.1,0.1-0.1,0.2-0.2,0.4c2.1,2.1,4.2,4.2,6.4,6.3c2.4,2.4,4.8,4.8,7.2,7.2
		c0.6,0.6,1,1.6,1,2.4c0.1,3.1,0,6.2,0,9.5c2.2,0,4.2,0,6.3,0c0,2.1,0,4.1,0,6.3c-17,0-34,0-51.1,0c0-2,0-4,0-6.2c2,0,4,0,6.3,0
		c0-1.5,0-2.8,0-4.1c0-2.3-0.6-4.8,0.3-6.8c0.8-2,3-3.4,4.6-5c3.2-3.2,6.5-6.5,9.8-9.8c-2.2-2.2-4.4-4.3-6.5-6.5
		c-2.4-2.4-4.8-4.8-7.2-7.2c-0.6-0.6-1-1.6-1-2.4c-0.1-3.1,0-6.2,0-9.5c-2.2,0-4.2,0-6.3,0c0-2.1,0-4.1,0-6.3
		C77.5,53.1,94.6,53.1,111.7,53.1z M86.1,80.5c4.2-4.2,8.4-8.4,12.5-12.5c0.1-0.1,0.3-0.3,0.3-0.5c0-2.7,0-5.4,0-8
		c-8.7,0-17.1,0-25.6,0c0,2.6,0,5.1,0,7.6c0,0.4,0.3,0.9,0.6,1.2C77.9,72.2,81.9,76.3,86.1,80.5z M98.8,110.6
		c0.8-7.3,0.7-7.7-4.2-12.6c-0.5-0.5-1-1-1.5-1.5c-2.3-2.3-4.6-4.6-6.9-6.9c-4.2,4.2-8.4,8.4-12.5,12.5c-0.1,0.1-0.3,0.3-0.3,0.5
		c0,2.7,0,5.4,0,8.1C81.9,110.6,90.3,110.6,98.8,110.6z"/>
	<path class="st0" d="M67,136.2c0-2.1,0-4.1,0-6.2c2.1,0,4.1,0,6.2,0c0,2,0,4.1,0,6.2C71.2,136.2,69.2,136.2,67,136.2z"/>
	<path class="st0" d="M83,129.9c2,0,4,0,6.1,0c0,2.1,0,4.1,0,6.3c-2,0-4,0-6.1,0C83,134.1,83,132.1,83,129.9z"/>
	<path class="st0" d="M99,136.2c0-2.1,0-4.1,0-6.2c2,0,4,0,6.2,0c0,2.1,0,4.1,0,6.2C103.2,136.2,101.2,136.2,99,136.2z"/>
</g>
</svg>
