<svg version="1.1" id="Layer_3" xmlns="http://www.w3.org/2000/svg" xmlns:xlink="http://www.w3.org/1999/xlink" 
		  	x="0px" y="0px" viewBox="0 0 1242 1093.4" style="enable-background:new 0 0 1242 1093.4;" xml:space="preserve">
<style type="text/css">
	.st0{fill:#FFFFFF;}
	.st1{enable-background:new    ;}
</style>
<g id="Fuente-GO">
	<g>
		<path class="st0" d="M955.4,687.2c-50.1,0-80.1,38.6-80.1,84.1v1.2c0,45.5,32.8,85.2,81.2,85.2c50.1,0,80.1-38.6,80.1-84.1v-1.2
			C1036.6,726.9,1003.8,687.2,955.4,687.2z"/>
		<path class="st0" d="M788.9,773.6v-1.2c0-56.5,29-106.2,74.8-134.8c-13-21.5-36.6-35.7-63.9-35.7l-194.6,1
			c-35.9,0-64.9,29.1-64.9,64.9c0,35.9,29.1,64,64.9,64l124.8-1v96.9c-20.7,14.8-44.5,25.6-70.8,32.3c0,4.1,0,8.3,0,12.5
			c1.7,0.5,3.6,1,5.3,1.6c7.9,3,11.6,9.1,12,17.2c0.4,7,0.2,13.9,0.1,20.9c-0.1,6.9-4.7,11.5-11.7,11.8c-1.9,0.1-3.9,0-6.3,0
			c0,1.2,0,2.2,0,3.2c0.1,23.5,0.2,47.1,0.3,70.6c67.2-11.3,122.1-36.5,163.1-61.6c15.2-9.1,27-19.7,35.4-32.3
			C815.3,875.2,788.9,827.7,788.9,773.6z"/>
		<path class="st0" d="M496.3,924.7c-2.4-0.1-4.4-0.1-6.4-0.4c-6.7-0.8-10.9-4.6-11.2-11.2c-0.3-8-0.3-16.1,0.6-24.1
			c0.9-8.5,6.4-13.6,14.8-15.4c0.7-0.2,1.5-0.4,2.4-0.6c0-7.9-0.1-15.6,0-23.3c0-0.7,0.1-1.3,0.1-2
			C427.8,813.8,384.2,742,384.2,653.3v-1.9c0-84.3,46.1-158.2,113.2-191.9c-1-2.2-1.5-4.8-1.5-7.5c0.1-26.6,0.2-53.3,0.4-79.9
			c0-1.1,0-2.3,0-3.3c-2.4-0.1-4.4-0.1-6.4-0.4c-6.7-0.8-10.9-4.6-11.2-11.2c-0.3-8-0.3-16.1,0.6-24.1c0.9-8.5,6.4-13.6,14.8-15.4
			c0.7-0.2,1.5-0.4,2.4-0.6c0-1.5,0-3,0-4.5C337.1,350.1,228.1,489,228.1,653.3v1.9c0,171.1,105.7,304,267.8,339.5
			c0.1-22.2,0.2-44.5,0.3-66.7C496.3,926.9,496.3,925.7,496.3,924.7z"/>
		<path class="st0" d="M664.7,318.3c7.9,3,11.6,9.1,12,17.2c0.4,7,0.2,13.9,0.1,20.9c-0.1,6.9-4.7,11.5-11.7,11.8
			c-1.9,0.1-3.9,0-6.3,0c0,1.2,0,2.2,0,3.2c0.1,26.7,0.2,53.5,0.3,80.2c25.1,8,47,19.9,68.1,35c10.7,7.8,24.2,15.5,45.5,15.5
			c40.7,0,73.7-32.9,73.7-73.7c0-29.1-16.5-49.4-31-60.1c-44.7-31.2-93.1-52-156.1-61c0,3.1,0,6.1,0,9.2
			C661,317.2,662.9,317.6,664.7,318.3z"/>
	</g>
</g>
<g id="luces">
	<g>
		<path class="st0" d="M668.4,895c0-10.1-3.8-14-13.7-14.7c-1.2-0.2-2.3-0.3-4-0.5c0-10.1,0-20,0.3-29.4c0-9.6-4.1-14.4-13.5-15.5
			c-39.5-4.6-78.7-4.6-118.2-0.2c-10.9,1.3-14.5,5.6-14.5,16.3c0,9.6,0,19.3,0,29.1c-1.5,0.3-2.3,0.5-3.3,0.5
			c-10.6,0.5-14.2,4.1-14.2,14.7c-0.2,5,0.2,10.1-0.2,15c-0.3,5,1.8,6.1,6.4,6.3c5,0,6.6-2,6.4-6.6c-0.3-5.8-0.3-11.6,0-17.3
			c0-1.8,1.7-3.5,2.6-5.3c0.7,0.3,1.5,0.5,2.1,0.8c0,2,0,4.1,0,6.1c-0.2,50-0.3,75.8-0.7,91.8c-0.2,5.4,0.5,11.1,0.3,16.5
			c-0.2,4.5-0.5,7.9,1.8,9.9c0.7,0.7,1.5,0.8,7.3,1.2c4.3,0.2,7.9,0.2,12.7-0.2c4.1-0.3,5-0.7,5.8-1.5c2.1-2.3,1.2-6.4,0.8-7.6
			c30,0,59.9,0,90,0c0,1.2,0,2.8,0.3,4.6c0.3,2.8,0.7,5,1.8,6.4c0.5,0.7,2,2.1,12.7,2c9.4,0,10.9-1.2,11.6-2
			c1.5-1.7,1.6-4.1,1.5-5.9c0-2.4,0-6,0-9.7c0-3.8-0.2-6.4-0.2-6.9c-0.7-9.4,0-49.2,0-98.7c0-2.1,0-4.1,0-6.3
			c0.8-0.3,1.5-0.5,2.1-0.8c1,1.8,2.5,3.6,2.6,5.4c0.3,6.1,0.3,12.4,0.2,18.5c-0.2,4.8,2.8,5.1,6.4,5.1c3.8,0,6.9,0,6.8-4.9
			C668.2,905.9,668.4,900.5,668.4,895z M517.6,990c-3.8,0-6.9-3.1-6.9-6.9s3.1-6.9,6.9-6.9c3.8,0,6.9,3.1,6.9,6.9
			S521.5,990,517.6,990z M536.3,990c-3.8,0-6.9-3.1-6.9-6.9s3.1-6.9,6.9-6.9c3.8,0,6.9,3.1,6.9,6.9S540.2,990,536.3,990z
			 M519.7,949.8c-7.1-1-9.1-3.6-9.1-11.7c0-24,0-48.2,0-72.2c0-10,2.1-12.5,10.6-12.5c18.7-0.2,37.5-0.2,56.3-0.2s37.5,0,56.3,0
			c8.9,0,10.9,2.3,10.9,12.7c-0.1,23.8-0.1,47.6-0.1,71.6c0,8.8-1.7,11.3-9.2,12.3C596.8,954.8,558.1,954.6,519.7,949.8z M618.8,990
			c-3.8,0-6.9-3.1-6.9-6.9s3.1-6.9,6.9-6.9c3.8,0,6.9,3.1,6.9,6.9S622.7,990,618.8,990z M637.8,990c-3.8,0-6.9-3.1-6.9-6.9
			s3.1-6.9,6.9-6.9s6.9,3.1,6.9,6.9C644.7,986.9,641.6,990,637.8,990z"/>
		<path class="st0" d="M668.4,339c0-10.1-3.8-14-13.7-14.7c-1.2-0.2-2.3-0.3-4-0.5c0-10.1,0-20,0.3-29.4c0-9.6-4.1-14.4-13.5-15.5
			c-39.5-4.6-78.7-4.6-118.2-0.2c-10.9,1.3-14.5,5.6-14.5,16.3c0,9.6,0,19.3,0,29.1c-1.5,0.3-2.3,0.5-3.3,0.5
			c-10.6,0.5-14.2,4.1-14.2,14.7c-0.2,5,0.2,10.1-0.2,15c-0.3,5,1.8,6.1,6.4,6.3c5,0,6.6-2,6.4-6.6c-0.3-5.8-0.3-11.6,0-17.3
			c0-1.8,1.7-3.5,2.6-5.3c0.7,0.3,1.5,0.5,2.1,0.8c0,2,0,4.1,0,6.1c-0.2,50-0.3,75.8-0.7,91.8c-0.2,5.4,0.5,11.1,0.3,16.5
			c-0.2,4.5-0.5,7.9,1.8,9.9c0.7,0.7,1.5,0.8,7.3,1.2c4.3,0.2,7.9,0.2,12.7-0.2c4.1-0.3,5-0.7,5.8-1.5c2.1-2.3,1.2-6.4,0.8-7.6
			c30,0,59.9,0,90,0c0,1.2,0,2.8,0.3,4.6c0.3,2.8,0.7,5,1.8,6.4c0.5,0.7,2,2.1,12.7,2c9.4,0,10.9-1.2,11.6-2
			c1.5-1.7,1.6-4.1,1.5-5.9c0-2.4,0-6,0-9.7c0-3.8-0.2-6.4-0.2-6.9c-0.7-9.4,0-49.2,0-98.7c0-2.1,0-4.1,0-6.3
			c0.8-0.3,1.5-0.5,2.1-0.8c1,1.8,2.5,3.6,2.6,5.4c0.3,6.1,0.3,12.4,0.2,18.5c-0.2,4.8,2.8,5.1,6.4,5.1c3.8,0,6.9,0,6.8-4.9
			C668.2,349.9,668.4,344.5,668.4,339z M517.6,434c-3.8,0-6.9-3.1-6.9-6.9c0-3.8,3.1-6.9,6.9-6.9c3.8,0,6.9,3.1,6.9,6.9
			C524.5,430.9,521.5,434,517.6,434z M536.3,434c-3.8,0-6.9-3.1-6.9-6.9c0-3.8,3.1-6.9,6.9-6.9c3.8,0,6.9,3.1,6.9,6.9
			C543.2,430.9,540.2,434,536.3,434z M519.7,393.8c-7.1-1-9.1-3.6-9.1-11.7c0-24,0-48.2,0-72.2c0-10,2.1-12.5,10.6-12.5
			c18.7-0.2,37.5-0.2,56.3-0.2s37.5,0,56.3,0c8.9,0,10.9,2.3,10.9,12.7c-0.1,23.8-0.1,47.6-0.1,71.6c0,8.8-1.7,11.3-9.2,12.3
			C596.8,398.8,558.1,398.6,519.7,393.8z M618.8,434c-3.8,0-6.9-3.1-6.9-6.9c0-3.8,3.1-6.9,6.9-6.9c3.8,0,6.9,3.1,6.9,6.9
			C625.7,430.9,622.7,434,618.8,434z M637.8,434c-3.8,0-6.9-3.1-6.9-6.9s3.1-6.9,6.9-6.9s6.9,3.1,6.9,6.9S641.6,434,637.8,434z"/>
	</g>
</g>
<g class="st1">
	<path class="st0" d="M271.7,189l-38.3-91.6c-0.8-2-1.5-4-1.5-6.2c0-7.3,5.7-12.8,13-12.8c6.7,0,11.1,3.9,13.2,9.1l29.5,76.4
		l29.8-77.2c1.7-4.2,6.2-8.3,12.5-8.3c7.1,0,12.8,5.4,12.8,12.5c0,2-0.7,4.2-1.3,5.7L302.7,189c-2.7,6.4-7.6,10.3-14.7,10.3h-1.7
		C279.3,199.3,274.4,195.4,271.7,189z"/>
	<path class="st0" d="M356.2,85.5c0-7.4,6.2-12,14.3-12c8.1,0,14.3,4.6,14.3,12v0.3c0,7.4-6.2,12.1-14.3,12.1
		c-8.1,0-14.3-4.7-14.3-12.1V85.5z M357.7,118.9c0-7.1,5.7-12.8,12.8-12.8c7.1,0,12.8,5.7,12.8,12.8v66.8c0,7.1-5.7,12.8-12.8,12.8
		c-7.1,0-12.8-5.7-12.8-12.8V118.9z"/>
	<path class="st0" d="M402,171.5v-0.3c0-19.7,15-28.8,36.4-28.8c9.1,0,15.7,1.5,22.1,3.7v-1.5c0-10.6-6.6-16.5-19.4-16.5
		c-7.1,0-12.8,1-17.7,2.5c-1.5,0.5-2.5,0.7-3.7,0.7c-5.9,0-10.6-4.6-10.6-10.5c0-4.6,2.9-8.4,6.9-9.9c8.1-3,16.9-4.7,28.8-4.7
		c14,0,24.1,3.7,30.5,10.1c6.7,6.7,9.8,16.7,9.8,28.8v41.1c0,6.9-5.6,12.3-12.5,12.3c-7.4,0-12.3-5.2-12.3-10.6v-0.2
		c-6.2,6.9-14.8,11.5-27.3,11.5C416,199.1,402,189.4,402,171.5z M460.9,165.6V161c-4.4-2-10.1-3.4-16.4-3.4
		c-11,0-17.7,4.4-17.7,12.5v0.3c0,6.9,5.7,11,14,11C452.8,181.4,460.9,174.8,460.9,165.6z"/>
	<path class="st0" d="M506.4,224.9c-8.3,0-14.3-3.4-14.3-10.5c0-6.2,4.6-10.3,9.9-10.3h0.2c3.7,0,6.2-2.4,6.2-8.4v-76.9
		c0-7.1,5.7-12.8,12.8-12.8s12.8,5.7,12.8,12.8v77.1c0,19.9-10.5,29-27.3,29H506.4z M506.9,85.5c0-7.4,6.2-12,14.3-12
		c8.1,0,14.3,4.6,14.3,12v0.3c0,7.4-6.2,12.1-14.3,12.1s-14.3-4.7-14.3-12.1L506.9,85.5L506.9,85.5z"/>
	<path class="st0" d="M552.8,171.5v-0.3c0-19.7,15-28.8,36.4-28.8c9.1,0,15.7,1.5,22.1,3.7v-1.5c0-10.6-6.6-16.5-19.4-16.5
		c-7.1,0-12.8,1-17.7,2.5c-1.5,0.5-2.5,0.7-3.7,0.7c-5.9,0-10.6-4.6-10.6-10.5c0-4.6,2.9-8.4,6.9-9.9c8.1-3,16.9-4.7,28.8-4.7
		c14,0,24.1,3.7,30.5,10.1c6.7,6.7,9.8,16.7,9.8,28.8v41.1c0,6.9-5.6,12.3-12.5,12.3c-7.4,0-12.3-5.2-12.3-10.6v-0.2
		c-6.2,6.9-14.8,11.5-27.3,11.5C566.8,199.1,552.8,189.4,552.8,171.5z M611.6,165.6V161c-4.4-2-10.1-3.4-16.4-3.4
		c-11,0-17.7,4.4-17.7,12.5v0.3c0,6.9,5.7,11,14,11C603.5,181.4,611.6,174.8,611.6,165.6z M589.9,93.7c0-1.5,0.8-3.2,1.7-4.6
		l9.3-14.5c2.2-3.5,5.4-5.7,9.6-5.7c6.2,0,14.3,3.9,14.3,7.8c0,2.4-1.3,4.2-3.4,6.1L611,92.6c-4.9,4.6-8.9,5.6-14.7,5.6
		C592.6,98.1,589.9,96.4,589.9,93.7z"/>
	<path class="st0" d="M704.2,152.8v-0.3c0-25.8,19.7-47,47.4-47c13.7,0,23.3,3.7,30.9,10.1c1.7,1.3,4,4.4,4,8.8
		c0,6.4-5.2,11.5-11.6,11.5c-3.4,0-5.9-1.3-7.4-2.5c-4.6-3.5-9.3-5.7-16-5.7c-12.8,0-21.9,11.3-21.9,24.6v0.3c0,13.8,8.9,25,22.9,25
		c6.7,0,12-2.4,16.9-6.2c1.3-1,3.9-2.4,6.9-2.4c6.1,0,10.8,4.9,10.8,11c0,3.4-1.5,6.1-3.7,8.1c-7.6,6.9-17.2,11.6-32,11.6
		C724.1,199.5,704.2,178.6,704.2,152.8z"/>
	<path class="st0" d="M798,152.8v-0.3c0-26,20.9-47,49.1-47c28,0,48.7,20.7,48.7,46.7v0.3c0,26-20.9,47-49.1,47
		C818.7,199.5,798,178.7,798,152.8z M870.5,152.8v-0.3c0-13.3-9.6-25-23.8-25c-14.7,0-23.4,11.3-23.4,24.6v0.3
		c0,13.3,9.6,25,23.8,25C861.7,177.4,870.5,166.1,870.5,152.8z"/>
	<path class="st0" d="M914.3,118.9c0-7.1,5.7-12.8,12.8-12.8s12.8,5.7,12.8,12.8v1c5.9-7.6,13.5-14.5,26.5-14.5
		c19.4,0,30.7,12.8,30.7,33.6v46.7c0,7.1-5.7,12.8-12.8,12.8s-12.8-5.7-12.8-12.8V147c0-12.1-5.7-18.4-15.5-18.4s-16,6.2-16,18.4
		v38.6c0,7.1-5.7,12.8-12.8,12.8s-12.8-5.7-12.8-12.8v-66.7H914.3z"/>
</g>
</svg> 
