<?xml version="1.0" encoding="utf-8"?>
<!-- Generator: Adobe Illustrator 22.1.0, SVG Export Plug-In . SVG Version: 6.00 Build 0)  -->
<svg version="1.1" id="Capa_1" xmlns="http://www.w3.org/2000/svg" xmlns:xlink="http://www.w3.org/1999/xlink" x="0px" y="0px"
	 viewBox="0 0 1080 1920" style="enable-background:new 0 0 1080 1920;" xml:space="preserve">
<style type="text/css">
	.st0{fill:#FFFFFF;}
</style>
<path class="st0" d="M790.6,345.2c-1.2-3.9-9.7-80.9-9.7-88.2c0-4.4,1.9-5.6,9.2-5.6h9.2l3.5,38.4c1.9,21.1,4.2,42.3,5,47.1
	c1.4,8.1,0.9,8.8-7.4,10C795.4,347.7,791.2,347,790.6,345.2z M702.2,314.9c-5.4-25-9.1-46.2-8.2-47.1c1-1,5-2.5,9-3.4l7.2-1.7
	l9.9,46.7c10.3,48.6,10.2,50.8-2.2,50.9C712.6,360.3,711.1,355.9,702.2,314.9z M622,340.2c-7.8-23.5-14.2-44.1-14.2-45.9
	c0-1.8,3.6-4.5,7.9-6l7.9-2.8l14.6,44.8c8,24.6,13.6,45.7,12.3,46.9c-1.2,1.1-5,2.9-8.3,3.9C636.7,382.7,635.3,379.9,622,340.2z
	 M543.7,370.8c-9.6-21.9-18-41.3-18.8-43.1c-0.7-1.8,2.3-5.2,6.8-7.5l8.1-4.2l19.7,44.2l19.6,44.2l-6.7,3.1c-3.7,1.7-7.7,3.1-9,3.1
	C562.2,410.6,553.3,392.7,543.7,370.8z M861.9,335.2v-89.4h33.5v178.7h-33.5V335.2z M397.2,453.4l-27.7-38.1l6.4-5.1
	c3.5-2.8,7.2-5.1,8.1-5c1,0.1,8.1,9.1,15.7,20c7.7,10.9,20.1,28.1,27.5,38.1l13.6,18.3l-6.2,5c-3.4,2.8-7,5-8,5
	C425.7,491.6,412.5,474.4,397.2,453.4z M519,513.2c-31.1-51.4-81.5-142.7-79.7-144.4c1.3-1.2,8.1-5.4,15.1-9.4l12.7-7.3l8.7,14.6
	c23.2,39.1,79,136.8,78.9,138.4c0,1.7-26.3,17.2-29,17.2C525,522.3,522,518.2,519,513.2z M331.6,506.7l-31.5-35.1l6.6-4.6
	c3.6-2.6,7.3-4.7,8.3-4.7c0.9,0,15.8,15.6,33,34.8l31.3,34.8l-6.5,5c-3.5,2.7-7.2,5-8,5C363.8,541.8,348.9,526,331.6,506.7z
	 M275.5,569.5c-19.2-17.1-34.9-32-34.9-32.9c0-1,2.1-4.7,4.7-8.4l4.7-6.6l35.1,31.7c19.3,17.4,35.1,32.5,35.1,33.5
	c0,1-2.2,4.5-4.9,7.8C310.4,600.7,310.4,600.7,275.5,569.5z M223.3,635.5c-20.3-14.7-37.4-27.6-38.2-28.8c-0.7-1.2,0.9-5.2,3.7-8.8
	l5-6.6l37.4,27.2c20.5,14.9,37.7,28.1,38.1,29.3c0.4,1.2-1.5,4.9-4.2,8.3l-5,6.1L223.3,635.5z M205,732.4L130.3,689l7.4-12.8
	c4.1-7.1,8.3-13.9,9.5-15.2c1.8-1.9,144.4,77.6,151.6,84.6c2.8,2.7-12.3,30.9-16.3,30.5C281,775.9,246.1,756.3,205,732.4z
	 M138.3,780.9l-43.7-19.8l4.1-8c2.3-4.4,5.7-7.4,7.7-6.6c25.3,9.7,82.6,37,82.5,39.3c-0.1,1.7-1.6,5.7-3.5,8.9
	C182,800.6,181.3,800.4,138.3,780.9z M108,859.7c-23.8-7.8-43.6-14.5-44.1-14.9c-1.9-1.7,6.2-15.4,9-15.4c3.5,0,85.5,27.2,87.2,28.9
	c1.7,1.7-4.3,15.8-6.7,15.7C152.3,874,131.8,867.5,108,859.7z M86.4,941.8l-45.3-9.9l1.7-7.3c0.9-4,2.5-8,3.4-9
	c1-1,22.2,2.7,47.1,8.2c37.6,8.2,45.4,10.7,45.4,14.8c0,6.3-2.9,13.8-5.2,13.4C132.5,951.8,111.3,947.2,86.4,941.8z M72.4,1025.4
	l-42.6-4.3v-9.3c0-7.2,1.2-9.3,5.2-9.3c7.6,0,85,8.4,88.6,9.6c5,1.7,1.2,18.4-4.1,17.9C117,1029.8,95.8,1027.7,72.4,1025.4z
	 M24.2,1100.3v-16.8h178.7v33.5H24.2V1100.3z M29.8,1188.8v-9.2l38.4-3.5c21.1-1.9,42.3-4.2,47.1-5c8.1-1.4,8.8-0.9,10,7.4
	c0.7,5.1,0,9.3-1.7,9.9c-3.6,1.2-81,9.6-88.6,9.6C31,1198,29.8,1195.9,29.8,1188.8z M43,1278.4c-0.8-5-1.2-9.3-1-9.5
	c0.2-0.2,21.1-4.8,46.4-10.2c47.9-10.2,50.1-10.1,50.2,2.3c0,5.2-4.2,6.7-42.5,14.9c-23.4,5-44.6,9.7-47.1,10.4
	C45.6,1287.2,44.1,1285.1,43,1278.4z M67.4,1366.9c-0.7-2.3-1.8-5.9-2.4-7.9c-1.3-4.4,87.2-34.3,90.6-30.7c1.1,1.2,2.9,5,3.9,8.3
	c1.7,5.6-1.1,7-40.9,20.2c-23.5,7.8-44.3,14.2-46.3,14.2C70.3,1371.1,68.1,1369.2,67.4,1366.9z M99.1,1447.8c-1.9-4.3-2.2-8-0.6-9.4
	c1.4-1.3,21-10.5,43.6-20.5l41-18.2l3.4,8.1c1.8,4.5,2.9,8.6,2.3,9.1c-1.5,1.4-83.3,37.9-85,37.9
	C102.9,1454.9,100.8,1451.7,99.1,1447.8z M146.3,1539.4c-0.6-1.2-4.5-7.9-8.6-15l-7.4-12.9l24.5-14c13.5-7.7,47.6-27.3,75.8-43.6
	c28.2-16.3,52.1-29.6,53.1-29.6c1.6,0,17.1,26.4,17.1,29.1c0,0.7-11.6,8-25.8,16.2c-84.7,49.2-124.4,71.9-125.8,71.9
	C148.1,1541.5,146.9,1540.5,146.3,1539.4z M187.7,1601.2c-2.6-4-4.3-7.6-3.8-8c0.5-0.4,17.9-13,38.6-27.9l37.7-27.1l4.9,6.1
	c2.7,3.3,4.9,6.9,4.9,8c0,1.8-73.8,56.1-76.3,56.1C193,1608.5,190.3,1605.2,187.7,1601.2z M243.9,1671l-5.1-6.7l14.8-13.5
	c8.2-7.4,24.2-21.9,35.7-32.2l20.9-18.7l4.9,6.4c2.7,3.5,4.9,7,5,7.9c0.1,1.5-63.3,59-68.3,61.9C250.3,1677,246.7,1674.7,243.9,1671
	z"/>
</svg>
