<?xml version="1.0" encoding="utf-8"?>
<!-- Generator: Adobe Illustrator 21.1.0, SVG Export Plug-In . SVG Version: 6.00 Build 0)  -->
<svg version="1.1" id="Layer_1" xmlns="http://www.w3.org/2000/svg" xmlns:xlink="http://www.w3.org/1999/xlink" x="0px" y="0px"
	 viewBox="0 0 100.3 100" style="enable-background:new 0 0 100.3 100;" xml:space="preserve">
<style type="text/css">
	.st0{fill:#FFFFFF;}
</style>
<path class="st0" d="M58.6,43.9C52.2,44,45.7,44,39.3,44c-1.8,0-3.8-0.1-5.6,0c-0.4,0-0.9,0.4-0.9,0.7c-0.1,3.5-0.1,7.1-0.1,10.7
	c5.3,0,10.5,0,15.7,0c-0.2,0.8-0.3,1.3-0.6,1.8C45.5,64,38,67.4,30.1,66.1C20.2,64.5,14.2,55.9,16,46.6c0.2-1.3,0.7-2.6,1.1-3.8
	c3.3-6.8,11.4-10.9,19.3-9.2c2.8,0.6,5.3,1.8,7.4,3.6c2.9-2.7,5.7-5.4,8.7-8.2c-0.2-0.1-0.6-0.4-0.8-0.6c-7-5.6-15-7.6-23.9-6.2
	C15,24.1,5.6,33.7,3.7,45c-0.9,4.8-0.6,9.9,1.4,14.8C10,71.6,22.6,78.9,36.2,77.5c6.6-0.7,12.5-2.9,17-7.5
	c6.8-6.9,8.6-15.2,7.5-24.2C60.6,44.2,60.1,43.9,58.6,43.9L58.6,43.9z M87.8,44.8c-0.6,0-1.2,0-2,0c0-0.1,0-0.3,0-0.4
	c0-0.5,0-0.9,0-1.3c0-2.4,0.1-4.7,0-7.1c0-0.4-0.5-1-0.7-1c-2.3-0.1-4.5-0.1-6.9-0.1c0,2.8,0,5.5,0,8.2c0,0.5,0,1,0,1.6
	c-3.5,0-6.8,0-10.4,0c0,0.8,0,1.3,0,1.8c0.1,1.7,0.2,3.5,0.3,5.3c1.8,0.1,3.6,0.2,5.5,0.2c1.5,0,3,0,4.7,0c0,3.4,0,6.5,0,9.6
	c2.5,0,4.9,0,7.5,0c0-3.2,0-6.3,0-9.6c3.5,0,6.8,0,10.2,0c0-1.9,0-3.6,0-5.5c0-0.6,0-1.1,0-1.7C93.3,44.8,90.6,44.8,87.8,44.8
	L87.8,44.8z"/>
</svg>
